{	
	"search":[
		{
			"country":"United States"
		},
		{
			"country":"United Kingdom"
		},
		{
			"country":"United Arab Emirates"
		},
		{
			"country":"Germany"
		},
		{
			"country":"France"
		},
		{
			"country":"Ukraine"
		},
		{
			"country":"Poland"
		}
	]
}